[api-updater (non-obsolete-error-filter)] 11/12/2021 5:40:58 PM : Starting C:/Program Files/Unity/Hub/Editor/2020.3.24f1/Editor/Data/Tools/ScriptUpdater/APIUpdater.NonObsoleteApiUpdaterDetector.exe
[api-updater (non-obsolete-error-filter)] 
----------------------------------
jit/startup time      : 9318.5272ms
moved types parse time: 55ms
candidates parse time : 1ms
C# parse time         : 222ms
candidates check time : 25ms
console write time    : 0ms

